{
  "id": "5553412e.aaacc",
  "type": "subflow",
  "name": "FourSquare",
  "info": "",
  "in": [
    {
      "x": 254.21427726745605,
      "y": 323.50000381469727,
      "wires": [
        {
          "id": "b3a3e23e.4c5c2"
        }
      ]
    }
  ],
  "out": [
    {
      "x": 2105.5,
      "y": 279.5,
      "wires": [
        {
          "id": "4c3c802b.b3c38",
          "port": 0
        }
      ]
    },
    {
      "x": 644.5,
      "y": 364.5,
      "wires": [
        {
          "id": "b3a3e23e.4c5c2",
          "port": 1
        }
      ]
    }
  ],
  "flow": [
    {
      "id": "d47fa6e6.2b8058",
      "type": "sqlarray",
      "z": "5553412e.aaacc",
      "columns": "[]"
    },
    {
      "id": "d85794dd.27a868",
      "type": "sqlarray",
      "z": "5553412e.aaacc",
      "columns": "[\"network\",\"venue\"]"
    },
    {
      "id": "883cb138.77c35",
      "type": "sqlarray",
      "z": "5553412e.aaacc",
      "columns": "[\"created_at\"]"
    },
    {
      "id": "b3a3e23e.4c5c2",
      "type": "function",
      "z": "5553412e.aaacc",
      "name": "Prepare Credentials and ID",
      "func": "if (!(msg.payload&&msg.payload.venue_id&&(msg.payload.venue_id.trim() !== \"\"))) {\n    return [null,msg];\n}\nmsg.info = {\n    venue   : msg.venue,\n    id      : msg.payload.venue_id\n};\nmsg.payload = {\n    venue   : msg.venue,\n    network : 'foursquare'\n};\nreturn [msg,null];",
      "outputs": "2",
      "noerr": 0,
      "x": 450,
      "y": 323.5,
      "wires": [
        [
          "60e6f4d0.9f190c"
        ],
        []
      ]
    },
    {
      "id": "60e6f4d0.9f190c",
      "type": "SQL Select",
      "z": "5553412e.aaacc",
      "sqldb": "e5955362.1a6ab",
      "name": "Get last inserted tip",
      "table": "reviews",
      "limit": "1",
      "offset": "0",
      "columns": "c6b050d.f394fb",
      "where": "c822e2d2.37dd2",
      "group": "f3413c1.f0cbec",
      "order": "c6b050d.f394fb",
      "orderdir": "DESC",
      "requireAll": 1,
      "noWhere": 0,
      "x": 711.5000305175781,
      "y": 304.07142639160156,
      "wires": [
        [
          "89db888c.762478"
        ]
      ]
    },
    {
      "id": "89db888c.762478",
      "type": "function",
      "z": "5553412e.aaacc",
      "name": "Set Params",
      "func": "//Set how far go with the import\nmsg.lastTip =   (new Date(msg.payload.length\n                          ? msg.payload[0].created_at\n                          : '2015-10-01')\n                ).getTime()/1000;\n//Set the id of the venue to obtain\nmsg.payload = {\n    id : msg.info.id\n};\nreturn msg;",
      "outputs": 1,
      "noerr": 0,
      "x": 896.0000305175781,
      "y": 304.07142639160156,
      "wires": [
        [
          "41908494.be6f7c"
        ]
      ]
    },
    {
      "id": "41908494.be6f7c",
      "type": "Combine Start",
      "z": "5553412e.aaacc",
      "name": "",
      "number": "2",
      "waitArray": 0,
      "x": 1064.2142162322998,
      "y": 303.49999809265137,
      "wires": [
        [
          "31cd4618.ce32ba",
          "ceae410b.3151c"
        ]
      ]
    },
    {
      "id": "31cd4618.ce32ba",
      "type": "Foursquare",
      "z": "5553412e.aaacc",
      "name": "Get average rating",
      "resource": "venues/:id",
      "version": "2016-01-28",
      "creds": "edc253ce.123db",
      "x": 1263.9285888671875,
      "y": 343.3571472167969,
      "wires": [
        [
          "e61fb109.19e05"
        ]
      ]
    },
    {
      "id": "e61fb109.19e05",
      "type": "subflow:cc41e025.33be2",
      "z": "5553412e.aaacc",
      "name": "",
      "x": 1509.714370727539,
      "y": 344.2857208251953,
      "wires": [
        [
          "4c3c802b.b3c38"
        ]
      ]
    },
    {
      "id": "4c3c802b.b3c38",
      "type": "Combine End",
      "z": "5553412e.aaacc",
      "name": "",
      "saveOutput": false,
      "x": 1969.5,
      "y": 279.5,
      "wires": [
        []
      ]
    },
    {
      "id": "ceae410b.3151c",
      "type": "function",
      "z": "5553412e.aaacc",
      "name": "Sorting",
      "func": "if (!msg.foursquareArgs) {\n    msg.foursquareArgs = {};\n}\nmsg.foursquareArgs.sort = 'recent';\nreturn msg;",
      "outputs": 1,
      "noerr": 0,
      "x": 1318.500015258789,
      "y": 285.5000009536743,
      "wires": [
        [
          "f7bd443c.0842b8"
        ]
      ]
    },
    {
      "id": "f7bd443c.0842b8",
      "type": "Foursquare",
      "z": "5553412e.aaacc",
      "name": "Obtain tips",
      "resource": "venues/:id/tips",
      "version": "2016-01-28",
      "creds": "edc253ce.123db",
      "x": 1467.5,
      "y": 285.5,
      "wires": [
        [
          "16db781e.e92488"
        ]
      ]
    },
    {
      "id": "16db781e.e92488",
      "type": "subflow:cd3347ee.32ccb8",
      "z": "5553412e.aaacc",
      "name": "",
      "x": 1402.7857093811035,
      "y": 158.85713958740234,
      "wires": [
        [
          "4c3c802b.b3c38"
        ],
        [
          "ceae410b.3151c"
        ],
        [
          "f50b3019.0af4d"
        ]
      ]
    },
    {
      "id": "f50b3019.0af4d",
      "type": "function",
      "z": "5553412e.aaacc",
      "name": "TODO: Do something with the error",
      "func": "\nreturn msg;",
      "outputs": 1,
      "noerr": 0,
      "x": 1765.5,
      "y": 109.5,
      "wires": [
        [
          "4c3c802b.b3c38"
        ]
      ]
    }
  ]
}