{
  "id": "984c1082.67b3f",
  "type": "subflow",
  "name": "FourSquare",
  "info": "",
  "in": [
    {
      "x": 254.21427726745605,
      "y": 323.50000381469727,
      "wires": [
        {
          "id": "35fbf110.ca040e"
        }
      ]
    }
  ],
  "out": [
    {
      "x": 2105.5,
      "y": 279.5,
      "wires": [
        {
          "id": "9e5a53eb.61a5b",
          "port": 0
        }
      ]
    },
    {
      "x": 644.5,
      "y": 364.5,
      "wires": [
        {
          "id": "35fbf110.ca040e",
          "port": 1
        }
      ]
    }
  ],
  "flow": [
    {
      "id": "fcaaf289.03551",
      "type": "sqlarray",
      "z": "984c1082.67b3f",
      "columns": "[]"
    },
    {
      "id": "3050176b.cfafe8",
      "type": "sqlarray",
      "z": "984c1082.67b3f",
      "columns": "[\"network\",\"venue\"]"
    },
    {
      "id": "a4314b6.f5bceb8",
      "type": "sqlarray",
      "z": "984c1082.67b3f",
      "columns": "[\"created_at\"]"
    },
    {
      "id": "35fbf110.ca040e",
      "type": "function",
      "z": "984c1082.67b3f",
      "name": "Prepare Credentials and ID",
      "func": "if (!(msg.payload&&msg.payload.venue_id&&(msg.payload.venue_id.trim() !== \"\"))) {\n    return [null,msg];\n}\nmsg.info = {\n    venue   : msg.venue,\n    id      : msg.payload.venue_id\n};\nmsg.payload = {\n    venue   : msg.venue,\n    network : 'foursquare'\n};\nreturn [msg,null];",
      "outputs": "2",
      "noerr": 0,
      "x": 450,
      "y": 323.5,
      "wires": [
        [
          "792b5088.86d4b"
        ],
        []
      ]
    },
    {
      "id": "792b5088.86d4b",
      "type": "SQL Select",
      "z": "984c1082.67b3f",
      "sqldb": "dbcf12ea.2430f",
      "name": "Get last inserted tip",
      "table": "reviews",
      "limit": "1",
      "offset": "0",
      "columns": "a4314b6.f5bceb8",
      "where": "3050176b.cfafe8",
      "group": "fcaaf289.03551",
      "order": "a4314b6.f5bceb8",
      "orderdir": "DESC",
      "requireAll": 1,
      "noWhere": 0,
      "x": 711.5000305175781,
      "y": 304.07142639160156,
      "wires": [
        [
          "ca21d874.35de28",
          "aa70b80f.558f48"
        ]
      ]
    },
    {
      "id": "ca21d874.35de28",
      "type": "function",
      "z": "984c1082.67b3f",
      "name": "Set Params",
      "func": "//Set how far go with the import\nmsg.lastTip =   (new Date(msg.payload.length\n                          ? msg.payload[0].created_at\n                          : '2015-10-01')\n                ).getTime()/1000;\n//Set the id of the venue to obtain\nmsg.payload = {\n    id : msg.info.id\n};\nreturn msg;",
      "outputs": 1,
      "noerr": 0,
      "x": 896.0000305175781,
      "y": 304.07142639160156,
      "wires": [
        [
          "9bed21ef.6412e"
        ]
      ]
    },
    {
      "id": "9bed21ef.6412e",
      "type": "Combine Start",
      "z": "984c1082.67b3f",
      "name": "",
      "number": "2",
      "waitArray": 0,
      "x": 1064.2142162322998,
      "y": 303.49999809265137,
      "wires": [
        [
          "f96d5319.0692b",
          "ddd0f1b1.222f1"
        ]
      ]
    },
    {
      "id": "f96d5319.0692b",
      "type": "Foursquare",
      "z": "984c1082.67b3f",
      "name": "Get average rating",
      "resource": "venues/:id",
      "version": "2016-01-28",
      "creds": "548037ee.ab7fc8",
      "x": 1263.9285888671875,
      "y": 343.3571472167969,
      "wires": [
        [
          "f42055a3.0bdfa8",
          "f21c2282.0de3e"
        ]
      ]
    },
    {
      "id": "f42055a3.0bdfa8",
      "type": "subflow:ec5d4f3.f13a2b",
      "z": "984c1082.67b3f",
      "name": "",
      "x": 1509.714370727539,
      "y": 344.2857208251953,
      "wires": [
        [
          "9e5a53eb.61a5b"
        ]
      ]
    },
    {
      "id": "9e5a53eb.61a5b",
      "type": "Combine End",
      "z": "984c1082.67b3f",
      "name": "",
      "saveOutput": false,
      "x": 1969.5,
      "y": 279.5,
      "wires": [
        []
      ]
    },
    {
      "id": "ddd0f1b1.222f1",
      "type": "function",
      "z": "984c1082.67b3f",
      "name": "Sorting",
      "func": "if (!msg.foursquareArgs) {\n    msg.foursquareArgs = {};\n}\nmsg.foursquareArgs.sort = 'recent';\nreturn msg;",
      "outputs": 1,
      "noerr": 0,
      "x": 1318.500015258789,
      "y": 285.5000009536743,
      "wires": [
        [
          "1559f08c.eaa60f"
        ]
      ]
    },
    {
      "id": "1559f08c.eaa60f",
      "type": "Foursquare",
      "z": "984c1082.67b3f",
      "name": "Obtain tips",
      "resource": "venues/:id/tips",
      "version": "2016-01-28",
      "creds": "548037ee.ab7fc8",
      "x": 1467.5,
      "y": 285.5,
      "wires": [
        [
          "e812367e.17edc8"
        ]
      ]
    },
    {
      "id": "e812367e.17edc8",
      "type": "subflow:c06b556.f3f94a8",
      "z": "984c1082.67b3f",
      "name": "",
      "x": 1402.7857093811035,
      "y": 158.85713958740234,
      "wires": [
        [
          "9e5a53eb.61a5b"
        ],
        [
          "ddd0f1b1.222f1"
        ],
        [
          "726985ed.8d967c"
        ]
      ]
    },
    {
      "id": "726985ed.8d967c",
      "type": "function",
      "z": "984c1082.67b3f",
      "name": "TODO: Do something with the error",
      "func": "\nreturn msg;",
      "outputs": 1,
      "noerr": 0,
      "x": 1765.5,
      "y": 109.5,
      "wires": [
        [
          "9e5a53eb.61a5b"
        ]
      ]
    },
    {
      "id": "aa70b80f.558f48",
      "type": "debug",
      "z": "984c1082.67b3f",
      "name": "",
      "active": true,
      "console": "false",
      "complete": "true",
      "x": 916,
      "y": 167,
      "wires": []
    },
    {
      "id": "f21c2282.0de3e",
      "type": "debug",
      "z": "984c1082.67b3f",
      "name": "",
      "active": true,
      "console": "false",
      "complete": "false",
      "x": 1448.5,
      "y": 380,
      "wires": []
    }
  ]
}