{
  "id": "ec5d4f3.f13a2b",
  "type": "subflow",
  "name": "Insert/Update Rating if different",
  "info": "",
  "in": [
    {
      "x": 101,
      "y": 119,
      "wires": [
        {
          "id": "a6a818b0.5957e8"
        }
      ]
    }
  ],
  "out": [
    {
      "x": 1191.3333940505981,
      "y": 43,
      "wires": [
        {
          "id": "d0d2837a.2f2d8",
          "port": 0
        },
        {
          "id": "eb47d36c.14b83",
          "port": 0
        },
        {
          "id": "7bf546bb.840ab8",
          "port": 0
        },
        {
          "id": "a6a818b0.5957e8",
          "port": 0
        }
      ]
    }
  ],
  "flow": [
    {
      "id": "530bf49e.acf40c",
      "type": "sqlarray",
      "z": "ec5d4f3.f13a2b",
      "columns": "[\"date\",\"venue\",\"network\"]"
    },
    {
      "id": "95d972f3.6a269",
      "type": "sqlarray",
      "z": "ec5d4f3.f13a2b",
      "columns": "[\"rating\"]"
    },
    {
      "id": "f8e4b6b1.071b48",
      "type": "sqlarray",
      "z": "ec5d4f3.f13a2b",
      "columns": "[\"date\"]"
    },
    {
      "id": "5bff96d0.a40068",
      "type": "sqlarray",
      "z": "ec5d4f3.f13a2b",
      "columns": "[]"
    },
    {
      "id": "ba23271.f45dcd8",
      "type": "sqlarray",
      "z": "ec5d4f3.f13a2b",
      "columns": "[\"venue\",\"network\"]"
    },
    {
      "id": "5c1da229.a3e25c",
      "type": "sqlarray",
      "z": "ec5d4f3.f13a2b",
      "columns": "[\"date\",\"rating\",\"venue\",\"network\"]"
    },
    {
      "id": "b0d8d482.4f2728",
      "type": "SQL Select",
      "z": "ec5d4f3.f13a2b",
      "sqldb": "dbcf12ea.2430f",
      "name": "",
      "table": "review_avgs",
      "limit": "1",
      "offset": "0",
      "columns": "5c1da229.a3e25c",
      "where": "ba23271.f45dcd8",
      "group": "5bff96d0.a40068",
      "order": "f8e4b6b1.071b48",
      "orderdir": "DESC",
      "requireAll": 1,
      "noWhere": 0,
      "x": 587.0000076293945,
      "y": 138.3333387374878,
      "wires": [
        [
          "d0d2837a.2f2d8"
        ]
      ]
    },
    {
      "id": "a6a818b0.5957e8",
      "type": "function",
      "z": "ec5d4f3.f13a2b",
      "name": "Check response from foursquare",
      "func": "if (msg.payload.meta && msg.payload.meta.code === 200 && msg.payload.venue) {\n    msg.venueData = {\n        rating : msg.payload.venue.rating,\n        venue : msg.info.venue,\n        network : 'foursquare'\n    };\n    msg.payload = {\n        venue : msg.info.venue,\n        network : 'foursquare'\n    }\n    return [null,msg];\n    \n}\nreturn [msg,null];",
      "outputs": "2",
      "noerr": 0,
      "x": 317.5,
      "y": 118,
      "wires": [
        [],
        [
          "b0d8d482.4f2728"
        ]
      ]
    },
    {
      "id": "d0d2837a.2f2d8",
      "type": "function",
      "z": "ec5d4f3.f13a2b",
      "name": "Check DB data",
      "func": "var today = (new Date()).toJSON().slice(0,10);\n//Check the results from the DB\nif (Array.isArray(msg.payload) && msg.payload.length) {\n    var lastRating = msg.payload[0];\n    //Check if the rating is changed\n    if (lastRating.rating !== msg.venueData.rating) {\n        //Check the date in the DB\n        var field_date = (new Date(lastRating.date)).toJSON().slice(0,10);\n        //If the record on the DB is from today update it with the new value\n        if (field_date === today) {\n            msg.payload = {\n                rating : msg.venueData.rating\n            };\n            msg.where = {\n                venue : msg.venueData.venue,\n                network : msg.venueData.network,\n                date : lastRating.date\n            };\n            return [null,msg,null];\n        }\n    } else {\n        //If the rating isn't changed, Do nothing\n        msg.payload = false;\n        return [msg,null,null];\n    }\n}\n//In case there's no data on the DB or the rating is changed but isn't of today, insert a new row in the DB\nmsg.payload = {\n    rating : msg.venueData.rating,\n    venue : msg.venueData.venue,\n    network : msg.venueData.network,\n    date : today\n};\nreturn [null,null,msg];\n",
      "outputs": "3",
      "noerr": 0,
      "x": 806.0000076293945,
      "y": 132.3333387374878,
      "wires": [
        [],
        [
          "eb47d36c.14b83"
        ],
        [
          "7bf546bb.840ab8"
        ]
      ]
    },
    {
      "id": "eb47d36c.14b83",
      "type": "SQL Update",
      "z": "ec5d4f3.f13a2b",
      "sqldb": "dbcf12ea.2430f",
      "name": "",
      "table": "review_avgs",
      "columns": "95d972f3.6a269",
      "where": "530bf49e.acf40c",
      "requireAll": 1,
      "requireAllWhere": null,
      "x": 1038.0000076293945,
      "y": 145.3333387374878,
      "wires": [
        []
      ]
    },
    {
      "id": "7bf546bb.840ab8",
      "type": "SQL Insert",
      "z": "ec5d4f3.f13a2b",
      "sqldb": "dbcf12ea.2430f",
      "name": "",
      "table": "review_avgs",
      "columns": "5c1da229.a3e25c",
      "requireAll": 1,
      "x": 1032.0000076293945,
      "y": 184.3333387374878,
      "wires": [
        []
      ]
    }
  ]
}